0.4333333	53.0333333	10 0 2 CM	The Well
1.5333333	53.65	10 0 2 CM	Sole Pit
0.7833333	53.5333333	10 0 2 CM	Silver Pit
-0.6666667	54.5166667	10 0 2 CM	Kelder Steel
-0.2555556	54.2094444	10 0 2 CM	Filey Brigg
1.7666667	53.4833333	10 0 2 CM	Coal Pit
1.5833333	54.0833333	10 0 2 CM	Skate Hole
1.8333333	53.6666667	10 0 2 CM	Well Hole
0.5666667	53.05	8 0 2 CM	Woolpack
2	53.25	8 0 2 CM	Well Bank
0.2833333	53.0666667	8 0 2 CM	Wainfleet Sand
0.9166667	53.4	8 0 2 CM	Triton Knoll
-0.1219444	54.06	8 0 2 CM	South Smithic
1.2166667	53.3666667	8 0 2 CM	South Outer Dowsing
1.1833333	53.05	8 0 2 CM	Sheringham Shoal
0.2333333	53	8 0 2 CM	Scullridge
-0.25	54.1666667	8 0 2 CM	Reighton Sands
0.85	53.2166667	8 0 2 CM	Race Bank
-0.2	53.6833333	8 0 2 CM	Paull Sand
-0.2	53.6833333	8 0 2 CM	Paull Holme Sands
2	53.1833333	8 0 2 CM	Ower Bank
0.3666667	53.1	8 0 2 CM	Outer Knock
1.0833333	53.4666667	8 0 2 CM	Outer Dowsing Shoal
0.4	53.1	8 0 2 CM	Outer Dogs Head
-0.0741667	54.0913889	8 0 2 CM	North Smithic
0.8333333	53.3	8 0 2 CM	North Ridge
1.0166667	53.55	8 0 2 CM	North Outer Dowsing
0.5333333	53.0166667	8 0 2 CM	Middle Bank
0.45	53.0833333	8 0 2 CM	Lynn Knock
0.3166667	53	8 0 2 CM	Long Sand
1.95	53.1166667	8 0 2 CM	Leman Bank
0.95	53.0333333	8 0 2 CM	Knock
0.35	53.0833333	8 0 2 CM	Inner Knock
0.5833333	53.2666667	8 0 2 CM	Inner Dowsing
0.3833333	53.05	8 0 2 CM	Inner Dogs Head
1.45	53.2166667	8 0 2 CM	Inner Cromer Knoll
-0.2666667	54.1833333	8 0 2 CM	Hunmanby Sands
0.1166667	53.5	8 0 2 CM	Haile Sand
1.5833333	53.3	8 0 2 CM	Haddock Bank
0.55	53	8 0 2 CM	Gore Middle
0.9666667	53.3	8 0 2 CM	East Dudgeon Shoals
0.9166667	53.2666667	8 0 2 CM	Dudgeon Shoals
0.75	53.1666667	8 0 2 CM	Docking Shoal
1.2833333	53.3166667	8 0 2 CM	Cromer Knoll
0.1666667	53.5666667	8 0 2 CM	Chequer Shoal
-0.9	54.5666667	8 0 2 CM	Cattersty Sands
-0.9	54.5666667	8 0 2 CM	Cattersby Sands
-0.5833333	53.1166667	8 0 2 CM	Burnham Ridge
0.6333333	53.0833333	8 0 2 CM	Burnham Flats
0.75	53	8 0 2 CM	Bridgirdle
0.95	53.0333333	8 0 2 CM	Blakeney Knock
0.5752778	54.3858333	8 0 2 CM	Inner Bank
1.0347222	54.4511111	8 0 2 CM	Outer Bank
1.5833333	54.9166667	8 0 2 CM	Dogger North Shoal
-0.3333333	54.5	8 0 2 CM	North East Bank
-0.75	54.75	8 0 2 CM	Hartlepool Ground
-0.3141667	54.62	8 0 2 CM	Whitby Ground
-0.2013889	54.7855556	8 0 2 CM	Whitby Fine Ground
-0.1666667	54.4166667	8 0 2 CM	Castle Ground
1.1666667	54.8333333	8 0 2 CM	Dogger North Ground
0.25	54.6666667	8 0 2 CM	North West Riff
0.9166667	54.3333333	8 0 2 CM	The Hills
1.5833333	54.3333333	8 0 2 CM	Bolders Bank
1.5	55	8 0 2 CM	North West Rough
1.6666667	54.3333333	8 0 2 CM	Dogger Bight
1.5	53.9166667	8 0 2 CM	Well Bank Flat
1.0833333	54.0833333	8 0 2 CM	Eastermost Rough
1.1666667	53.8833333	8 0 2 CM	Off Ground
0.9166667	53.2666667	8 0 2 CM	Dudgeon Shoal
1.0833333	53.4666667	8 0 2 CM	Outer Dowsing
1.4877778	54.2038889	8 0 2 CM	South-West Spit
0.0833333	54.05	8 0 2 CM	California
0.2166667	53.0166667	8 0 2 CM	Wrangle Flats
0.25	53.05	8 0 2 CM	Friskney Flats
